{
    "barret": {
        "name": "Bullet Works",
        "members": [
            {
                "id": "NPC_Barrett_001",
                "arsenal": {
                    "name": "Bullet Walker",
                    "description": "An all-purpose combat unit. Although it is fully customized to handle any mission, its equipment does not bear as much impact on performance as its pilot's experience in battle."
                },
                "outer": {
                    "name": "Brigadier General",
                    "description": "Capable of controlling his allies' adrenaline levels, increasing their attack strength and mobility.",
                    "skills": [
                        {
                            "id": "Bgeneral1",
                            "type": "Speed up",
                            "value": 30.0
                        }
                    ]
                }
            },
            {
                "id": "NPC_Barrett_002",
                "arsenal": {
                    "name": "Scarlet Sword",
                    "description": "A speed-type combat unit. What it lacks in defenses, it more than makes up for with highly-mobile offenses. Though difficult to use, a skilled pilot can leverage its potential to great effect."
                },
                "outer": {
                    "name": "Crimson Lord",
                    "description": "High-risk situations trigger a dramatic increase in reflexive ability, with a corresponding increase in Arsenal mobility.",
                    "skills": []
                }
            },
            {
                "id": "NPC_Barrett_003",
                "arsenal": {
                    "name": "Raging Bull",
                    "description": "A power-type combat unit. It has been outfitted to handle unarmed close quarters combat by floating like a butterfly and stinging like a bee. Clearly customized to suit a pugilistic pilot."
                },
                "outer": {
                    "name": "Bone Box",
                    "description": "Capable of increasing his base muscular strength, with a corresponding increase in overall aggression.",
                    "skills": [
                        {
                            "id": "BoneBox1",
                            "type": "Super Armor",
                            "value": 0.0
                        }
                    ]
                }
            },
            {
                "id": "NPC_Barrett_004",
                "arsenal": {
                    "name": "Wiseman's Dagger",
                    "description": "An all-purpose combat unit. It specializes in landing long-range shots with pinpoint accuracy, albeit at the cost of mobility. It is also well-equipped to handle itself in melee encounters."
                },
                "outer": {
                    "name": "Painkiller",
                    "description": "Replaced his missing legs with custom-made artificial prostheses. This exchange has enhanced his other senses.",
                    "skills": []
                }
            },
            {
                "id": "NPC_Barrett_005",
                "arsenal": {
                    "name": "Grand Totem",
                    "description": "An all-purpose combat unit. Despite being outfitted in heavy armor, its well-balanced equipment allows it to successfully engage in combat at a variety of ranges."
                },
                "outer": {
                    "name": "Falcon",
                    "description": "Capable of perceiving beyond his immediate surroundings through a heightened sense of smell. Stealth systems are ineffective against him.",
                    "skills": []
                }
            },
            {
                "id": "NPC_Barrett_006",
                "arsenal": {
                    "name": "Peacemaker",
                    "description": "A combat support unit. Its equipment has been optimized to provide on-the-fly assistance to the pilot's teammates by focusing its design on facilitating in-and-out \"fly by\" techniques."
                },
                "outer": {
                    "name": "Johnny G",
                    "description": "While his standard capabilities far exceed those of an ordinary human, he has no unique skills of his own. ",
                    "skills": []
                }
            },
            {
                "id": "NPC_Barrett_007",
                "arsenal": {
                    "name": "Anaconda",
                    "description": "A power-type combat unit. It is composed of heavy equipment based on standard military specifications, and therefore functions reliably both at close quarters and mid-range combat."
                },
                "outer": {
                    "name": "Drake",
                    "description": "Her skeleton and muscles are especially fortified, resulting in heightened physical performance.",
                    "skills": []
                }
            },
            {
                "id": "NPC_Barrett_008",
                "arsenal": {
                    "name": "Fianchetto",
                    "description": "A combat support unit. Its armaments were designed primarily for conducting field research, reconnaissance, and support operations rather than engaging directly in head-to-head combat."
                },
                "outer": {
                    "name": "Bishop",
                    "description": "Capable of perceiving ambient electromagnetic waves. This manifests as an increase in radar functionality.",
                    "skills": []
                }
            },
            {
                "id": "NPC_Barrett_009",
                "arsenal": {
                    "name": "Burn Beat",
                    "description": "A speed-type combat unit. Its equipment was chosen based on aesthetic tastes rather than combat performance, but in the right hands it boasts as much function as it does form."
                },
                "outer": {
                    "name": "Artist",
                    "description": "While his standard capabilities far exceed those of an ordinary human's, he has no unique skills of his own.",
                    "skills": []
                }
            },
            {
                "id": "NPC_Barrett_010",
                "arsenal": {
                    "name": "Shadow Fang",
                    "description": "An all-purpose combat unit. It has been outfitted to engage enemies at all ranges, but its equipment does not prioritize performance so much as it highlights the pilot's innate talents."
                },
                "outer": {
                    "name": "Diablo",
                    "description": "His entire body is capable of processing information. By focusing, he can speed up this process, which manifests in the form of increased Arsenal mobility.",
                    "skills": []
                }
            }
        ]
    },
    "tellers": {
        "name": "Terrors",
        "members": [
            {
                "id": "NPC_Tellers_001",
                "arsenal": {
                    "name": "Kloster",
                    "description": "A speed-type combat unit. It is equipped to excel in all operational situations, yet it was designed without regard for ease of use. Piloting it at all, let alone successfully, requires the utmost skill."
                },
                "outer": {
                    "name": "Grief",
                    "description": "Rumored to have the ability to see the cause and effect of all potential outcomes, which would make him one of the strongest Outers alive. Furthermore, his abilities have been enhanced to such an extreme that he outclasses all other Outers.",
                    "skills": [
                        {
                            "id": "Grief_02_01",
                            "type": "Attack up",
                            "value": 30.0
                        },
                        {
                            "id": "Grief_02_02",
                            "type": "VP up",
                            "value": 50.0
                        },
                        {
                            "id": "Grief_02_03",
                            "type": "Boost speed up",
                            "value": 50.0
                        }
                    ]
                }
            },
            {
                "id": "NPC_Tellers_002",
                "arsenal": {
                    "name": "Antanaklasi",
                    "description": "A speed-type combat unit. Both arms are equipped with long-range rifles. It is theorized that they can be used simultaneously, but no one on their receiving end has lived to prove it."
                },
                "outer": {
                    "name": "Regret",
                    "description": "Possesses the ability to perform extremely complex calculations on the fly, from ballistics trajectories to risk matrices, as if she were a biological computer.",
                    "skills": []
                }
            },
            {
                "id": "NPC_Tellers_003",
                "arsenal": {
                    "name": "Eleos",
                    "description": "A power-type combat unit. Its defensive capabilities are superb, making it capable of withstanding heavy fire as it charges forward to close the gap between it and its target."
                },
                "outer": {
                    "name": "Gloom",
                    "description": "Exceptionally skilled across a variety of disciplines. His physical and mental abilities exceed those of ordinary humans and Outers.",
                    "skills": []
                }
            }
        ]
    },
    "west": {
        "name": "The Western VII",
        "members": [
            {
                "id": "NPC_West_001",
                "arsenal": {
                    "name": "First Strike",
                    "description": "An all-purpose combat unit. Although it is heavy, its high-quality construction allows it to strike a balance between excellence in melee battles and long-range operational situations."
                },
                "outer": {
                    "name": "Reaper",
                    "description": "Capable of tracking multiple targets at once, understanding their connections to one another, and locating the weakest link in the chain that will allow him to destroy them all in one fell swoop.",
                    "skills": [
                        {
                            "id": "Reaper1",
                            "type": "TBD?",
                            "value": 0.0
                        }
                    ]
                }
            },
            {
                "id": "NPC_West_002",
                "arsenal": {
                    "name": "Deep Shadow",
                    "description": "A speed-type combat unit. That its equipment specializes in melee attack power despite its structural emphasis on mobility is a testament to the hand-to-hand capabilities of its pilot."
                },
                "outer": {
                    "name": "Nameless",
                    "description": "Capable of predicting a target's position seconds in advance by tracking their movement and respiratory rate, and using that knowledge to strike with deadly accuracy.",
                    "skills": []
                }
            },
            {
                "id": "NPC_West_003",
                "arsenal": {
                    "name": "Lionheart",
                    "description": "A power-type combat unit. Equipped for melee battles and rapid repairs without any bells or whistles, this unit is a no-nonsense brawler made to take a beating and give one back tenfold."
                },
                "outer": {
                    "name": "Gargantua",
                    "description": "Possesses the ability to enlarge his muscles to near-comic proportions. Despite how big and bulky he becomes afterward, this process does not diminish his mobility or dexterity.",
                    "skills": []
                }
            },
            {
                "id": "NPC_West_004",
                "arsenal": {
                    "name": "Faceless",
                    "description": "A speed-type combat unit. Equipped with stealth technology, it was designed with recon and covert ops in mind. It is especially adept when utilized for infiltration and close quarters combat."
                },
                "outer": {
                    "name": "Rouge Cinderella",
                    "description": "Exhibits total control over her biological responses. She can quiet her heartbeat to camouflage herself as a form of living stealth, or even feign death if necessary.",
                    "skills": []
                }
            },
            {
                "id": "NPC_West_005",
                "arsenal": {
                    "name": "Elder Hand",
                    "description": "An all-purpose combat unit. Its high defensive capabilities are complemented by a burn-inflicting flamethrower and a stun-inflicting arc gun, granting the tactical edge to a strategic mind."
                },
                "outer": {
                    "name": "Klondike",
                    "description": "A bonafide genius with an IQ of 187. His prodigious intellect is itself a manifestation of his ability.",
                    "skills": []
                }
            },
            {
                "id": "NPC_West_006",
                "arsenal": {
                    "name": "Dead Hand",
                    "description": "A power-type combat unit. It also specializes in defensive prowess. While capable of fighting at any range, its was constructed to allow for the wear and tear of a devil-may-care piloting style."
                },
                "outer": {
                    "name": "Red Dog",
                    "description": "He can manifest his thoughts as physical actions. Also, his passion for scavenging the battlefield for spoils means anyone who partners with him is more likely to find new equipment, though this is more of a personal quirk than anything.",
                    "skills": []
                }
            },
            {
                "id": "NPC_West_007",
                "arsenal": {
                    "name": "Ambivalence",
                    "description": "An all-purpose combat unit. Its construction places emphasis on both defense and speed. This extremely uncommon design allows it to swap between melee and long-ranged combat."
                },
                "outer": {
                    "name": "Sif",
                    "description": "She can intuitively sense impending crises, rushing headlong into danger when Sif is the dominant personality. Conversely, she avoids danger altogether when Ayer is in control.",
                    "skills": []
                }
            }
        ]
    },
    "panzer": {
        "name": "Panzer Crown",
        "members": [
            {
                "id": "NPC_Panzer_001",
                "arsenal": {
                    "name": "High Line",
                    "description": "A speed-type combat unit. Its wide-range sensors are equipped with long-distance lock-on tech, making it adept at patrolling the battlefield in search of targets to seek and destroy."
                },
                "outer": {
                    "name": "Guns Empress",
                    "description": "While her actual Outer ability is unknown, she notably boasts an uncannily high rate of synchronicity with her Arsenal. This manifests in the form of heightened radar functionality and near-immunity to jamming attempts.",
                    "skills": [
                        {
                            "id": "JammingDisable",
                            "type": "Radar jamming immunity",
                            "value": 0.0
                        }
                    ]
                }
            },
            {
                "id": "NPC_Panzer_002",
                "arsenal": {
                    "name": "Buster Chariot",
                    "description": "A power-type combat unit. It is easily capable of reaching breakneck speeds in addition to packing a punch, which allows its pilot to switch freely between close quarters and mid-range combat."
                },
                "outer": {
                    "name": "Rose Queen",
                    "description": "Capable of maintaining an extreme state of heightened stimulation due to her overactive adrenal glands. In this state, her strength is increased and she ignores all pain.",
                    "skills": [
                        {
                            "id": "RewardCreditsUp_Leader",
                            "type": "Reward credits up",
                            "value": 20.0
                        }
                    ]
                }
            },
            {
                "id": "NPC_Panzer_003",
                "arsenal": {
                    "name": "Winning Road",
                    "description": "An all-purpose combat unit. Its jamming technology is able to hamper enemy sensors, leaving its pilot free to engage in long-range combat from as far a distance as they please."
                },
                "outer": {
                    "name": "Crown Princess",
                    "description": "Capable of identifying specific individuals and extrapolating their exact location from an incredibly long distance.",
                    "skills": [
                        {
                            "id": "JammingDisable",
                            "type": "Radar jamming immunity",
                            "value": 0.0
                        }
                    ]
                }
            }
        ]
    },
    "hell": {
        "name": "The Five Hells",
        "members": [
            {
                "id": "NPC_Hell_001",
                "arsenal": {
                    "name": "Judgment Blaze",
                    "description": "An all-purpose combat unit. It boasts cutting edge equipment specially tailored to the pilot's physical prowess and mental acuity, granting it specs that put the average unit to shame."
                },
                "outer": {
                    "name": "Savior",
                    "description": "In technical terms, he can attune himself to another being's consciousness. This allows him to read the enemy's will, be they man or machine, and glean their true intentions.",
                    "skills": []
                }
            },
            {
                "id": "NPC_Hell_002",
                "arsenal": {
                    "name": "Glory Edge",
                    "description": "A speed-type combat unit. Its design eschews defensive capabilities to possess a high resistance to status ailments. It also excels at jamming the enemy's sensors and engaging in melee combat."
                },
                "outer": {
                    "name": "Nemesis",
                    "description": "Her cellular regeneration is above and beyond that of normal human beings, defying all logic and reason. It's widely believed that she is immune to the effects of aging.",
                    "skills": []
                }
            },
            {
                "id": "NPC_Hell_003",
                "arsenal": {
                    "name": "Ater",
                    "description": "A power-type combat unit. Being outfitted with two gun arms allows it to close the gap and assault enemies with brute force. On the flip side, it is ineffective at enduring prolonged battles."
                },
                "outer": {
                    "name": "Abyss",
                    "description": "Possesses the unique ability to instill the fear of death in subjects. Ironically, this has a more noticeable effect on Immortals, as mercenaries are already desensitized to death.",
                    "skills": [
                        {
                            "id": "Abyss1",
                            "type": "TBD?",
                            "value": 0.0
                        }
                    ]
                }
            },
            {
                "id": "NPC_Hell_004",
                "arsenal": {
                    "name": "Albus",
                    "description": "A speed-type combat unit. Its equipment lends itself toward high-mobility maneuvers. Both of its arms wield melee weapons, making it perfect for hit-and-run assaults in close quarters combat."
                },
                "outer": {
                    "name": "Heaven",
                    "description": "Possesses the unique ability to evoke destructive impulses in those around her; including Immortals. Its effectiveness fluctuates depending her mood.",
                    "skills": [
                        {
                            "id": "Abyss1",
                            "type": "TBD?",
                            "value": 0.0
                        }
                    ]
                }
            },
            {
                "id": "NPC_Hell_005",
                "arsenal": {
                    "name": "Guardian",
                    "description": "A combat support unit. Its unique loadout opens the door for its pilot to serve allied units in a multifunctional role as a long-ranged sniper, a selfless combat medic, and a shielded defender."
                },
                "outer": {
                    "name": "Knight",
                    "description": "Knight is not an Outer. Only through body modifications and old-fashioned grit is he able to pilot an Arsenal at all. In battle, he often positions himself as a bulwark between the enemy and his allies.",
                    "skills": []
                }
            }
        ]
    },
    "steelknight": {
        "name": "The Steel Knights",
        "members": [
            {
                "id": "NPC_Steelknight_001",
                "arsenal": {
                    "name": "Paladin",
                    "description": "A defense unit. It has been outfitted to focus primarily on close quarters combat. This model wields a blade in each hand, giving it a distinct edge in melee situations."
                },
                "outer": {
                    "name": "Deva",
                    "description": "Capable of working in tandem with his younger brother Zoa, though this state of perfect synchronization only lasts for five minutes.",
                    "skills": []
                }
            },
            {
                "id": "NPC_Steelknight_002",
                "arsenal": {
                    "name": "Crusader",
                    "description": "A speed-type combat unit. Because its design focuses primarily on speed and mobility, its defensive capabilities are lacking. Instead, it specializes in launching long-range attacks."
                },
                "outer": {
                    "name": "Zoa",
                    "description": "Capable of working in tandem with his older brother Deva, though this state of perfect synchronization only lasts for five minutes.",
                    "skills": []
                }
            }
        ]
    },
    "innocence": {
        "name": "Immortal Innocence",
        "members": [
            {
                "id": "NPC_Innocence_001",
                "arsenal": {
                    "name": "Ogre Alpha",
                    "description": "An all-purpose combat unit. Its armaments favor one-on-one melee combat. It is also equipped with mines for destroying groups of enemies."
                },
                "outer": {
                    "name": "Crow",
                    "description": "His actual ability is unknown, but whenever he appears to have died, he reappears the next day completely unharmed. Some believe he has powerful regenerative abilities; others speculate he is, in fact, truly immortal.",
                    "skills": []
                }
            },
            {
                "id": "NPC_Innocence_002",
                "arsenal": {
                    "name": "Ogre Beta",
                    "description": "An all-purpose combat unit. Its equipment lends itself toward mid-range combat. By staying mobile enough to maintain an ideal distance, its pilot can utilize the best tool for any situation."
                },
                "outer": {
                    "name": "Notes",
                    "description": "His actual ability is unknown, but whenever he appears to have died, he reappears the next day completely unharmed. Some believe he has powerful regenerative abilities; others speculate he is, in fact, truly immortal.",
                    "skills": []
                }
            },
            {
                "id": "NPC_Innocence_003",
                "arsenal": {
                    "name": "Ogre Gamma",
                    "description": "An all-purpose combat unit. It has been equipped for all kinds of operational situations. What truly sets it apart, however, is its unique ability to unlock the inner potential of its pilot."
                },
                "outer": {
                    "name": "Jack",
                    "description": "His actual ability is unknown, but whenever he appears to have died, he reappears the next day completely unharmed. Some believe he has powerful regenerative abilities; others speculate he is, in fact, truly immortal.",
                    "skills": [
                        {
                            "id": "HateImportanceUp1",
                            "type": "TBD????",
                            "value": 100.0
                        }
                    ]
                }
            },
            {
                "id": "NPC_Innocence_004",
                "arsenal": {
                    "name": "Ogre Delta",
                    "description": "An all-purpose combat unit. Equipping an additional ammo cartridge makes it capable of enduring long campaigns as well as launching concentrated attacks at a moment's notice."
                },
                "outer": {
                    "name": "Rigid",
                    "description": "Her actual ability is unknown, but whenever she appears to have died, she reappears the next day completely unharmed. Some believe she has powerful regenerative abilities; others speculate she is, in fact, truly immortal.",
                    "skills": []
                }
            },
            {
                "id": "NPC_Innocence_005",
                "arsenal": {
                    "name": "Ogre Epsilon",
                    "description": "An all-purpose combat unit. Designed to maximize the long-range firepower of laser cannons and sniper rifles, it is well-suited to picking off unsuspecting enemies from afar."
                },
                "outer": {
                    "name": "Chill",
                    "description": "Her actual ability is unknown, but whenever she appears to have died, she reappears the next day completely unharmed. Some believe she has powerful regenerative abilities; others speculate she is, in fact, truly immortal.",
                    "skills": []
                }
            }
        ]
    },
    "unknown": {
        "name": "Unknown",
        "members": [
            {
                "id": "NPC_Solomon_001",
                "arsenal": {
                    "name": "Muramasa",
                    "description": "No data is available on this unit or its equipment. It is believed to be the first prototype of its kind."
                },
                "outer": {
                    "name": "Solomon",
                    "description": "???",
                    "skills": [
                        {
                            "id": "BadStatusDisable",
                            "type": "Status effects immunity",
                            "value": 0.0
                        }
                    ]
                }
            }
        ]
    }
}